37411 440 50 2 0 1 119324 6996 6994 4809 70910 70925 70920 84679 84682 84683 
39600 440 50 2 0 1 119324 6997 6994 6996 70906 70924 70920 70910 70913 70925 
45136 440 50 2 0 1 119324 4809 6994 4808 84679 84683 70920 84688 84694 84691 
55228 440 50 2 0 1 118223 4809 4810 6996 84680 84686 84674 70911 84682 84675 
59661 440 50 2 0 1 118223 6996 4810 5287 70911 84675 84674 81778 81780 84676 
59812 440 50 2 0 1 118223 4613 5287 4810 85920 85923 81778 84674 85925 84676 
60717 422 50 2 0 1 118223 117226 4809 119324 44322 84681 84680 38194 44321 84679 
61839 413 1 2 0 1 115432 122293 120116 122918 17009 28361 28357 13898 17013 28360 
62740 413 1 2 0 1 120116 121111 121956 115432 28363 22596 28362 28357 22589 18634 
64262 440 50 2 0 1 118223 4809 6996 119324 84680 84682 70911 38194 84679 70910 
64721 413 1 2 0 1 115432 122987 120116 122293 13641 28359 28357 17009 17012 28361 
71673 461 50 2 0 1 118223 6996 5287 118222 70911 81780 81778 38203 70912 81779 
73973 422 1 2 0 1 121111 119959 122918 119324 29266 29262 22593 32674 32675 32672 
74155 422 50 2 0 1 121109 5287 118222 118223 81777 81779 38198 38191 81778 38203 
76382 461 50 2 0 1 118223 6996 118222 119324 70911 70912 38203 38194 70910 38202 
76884 422 1 2 0 1 118223 116271 123289 121109 51055 51051 38189 38191 51053 22606 
77076 422 1 2 0 1 122293 121109 122918 123289 22609 22607 17013 17011 22606 13900 
